<?xml version="1.0" encoding="utf-8"?>
<!-- Generator: Adobe Illustrator 25.2.0, SVG Export Plug-In . SVG Version: 6.00 Build 0)  -->
<svg version="1.1" id="Layer_1"
	xmlns="http://www.w3.org/2000/svg"
	xmlns:xlink="http://www.w3.org/1999/xlink" x="0px" y="0px" viewBox="0 0 500 500" style="enable-background:new 0 0 500 500;" xml:space="preserve">
	<style type="text/css">
	.st0{fill:#FFFFFF;}
	.st1{fill:#006f53;}
	</style>
	<g id="Colors_x2C_-Font-and-Icons_1_" transform="translate(-222.000000, -3117.000000)">
		<g id="Group-20_1_" transform="translate(89.000000, 2799.000000)">
			<g id="speech-bubble-1_1_" transform="translate(133.000000, 318.000000)">
				<g id="Group_1_">
					<path id="Shape_7_" class="st0" d="M352.4-2.2H147.6c-38.9,0-71.7,32.8-71.7,71.7v81.9c0,38.9,32.8,71.7,71.7,71.7h192.5
					l32.8,28.7c6.1,6.1,12.3,8.2,20.5,8.2c16.4,0,30.7-14.3,30.7-30.7V69.5C424,30.6,391.3-2.2,352.4-2.2z"/>
				</g>
			</g>
		</g>
	</g>
	<g id="Colors_x2C_-Font-and-Icons" transform="translate(-222.000000, -3117.000000)">
		<g id="Group-20" transform="translate(89.000000, 2799.000000)">
			<g id="speech-bubble-1" transform="translate(133.000000, 318.000000)">
				<g id="Group">
					<path id="Shape" class="st1" d="M352.4-2.2H147.6c-38.9,0-71.7,32.8-71.7,71.7v81.9c0,38.9,32.8,71.7,71.7,71.7h192.5l32.8,28.7
					c6.1,6.1,12.3,8.2,20.5,8.2c16.4,0,30.7-14.3,30.7-30.7V69.5C424,30.6,391.3-2.2,352.4-2.2z M403.6,229.2
					c0,10.2-10.2,14.3-16.4,8.2l-36.9-32.8c-2-2-4.1-2-6.1-2H147.6c-28.7,0-51.2-22.5-51.2-51.2V69.5c0-28.7,22.5-51.2,51.2-51.2
					h204.8c28.7,0,51.2,22.5,51.2,51.2L403.6,229.2L403.6,229.2z"/>
					<path id="Shape_1_" class="st1" d="M157.8,104.3c-2,2-4.1,6.1-4.1,10.2c0,4.1,2,8.2,4.1,10.2c2,2,6.1,4.1,10.2,4.1
					c4.1,0,8.2-2,12.3-4.1c2-2,4.1-6.1,4.1-10.2c0-4.1-2-8.2-4.1-10.2C174.2,98.2,164,98.2,157.8,104.3L157.8,104.3z"/>
					<path id="Shape_2_" class="st1" d="M239.7,104.3c-2,2-4.1,6.1-4.1,10.2c0,4.1,2,8.2,4.1,10.2c2,2,6.1,4.1,10.2,4.1
					c4.1,0,8.2-2,12.3-4.1c2-2,4.1-6.1,4.1-10.2c0-4.1-2-8.2-4.1-10.2C256.1,98.2,245.9,98.2,239.7,104.3z"/>
					<path id="Shape_3_" class="st1" d="M321.7,104.3c-2,2-4.1,6.1-4.1,10.2c0,4.1,2,8.2,4.1,10.2c2,2,6.1,4.1,10.2,4.1
					s8.2-2,12.3-4.1c2-2,4.1-6.1,4.1-10.2c0-4.1-2-8.2-4.1-10.2C338,98.2,327.8,98.2,321.7,104.3z"/>
				</g>
			</g>
		</g>
	</g>
</svg>
