<?xml version="1.0" encoding="utf-8"?>
<!-- Generator: Adobe Illustrator 25.2.0, SVG Export Plug-In . SVG Version: 6.00 Build 0)  -->
<svg version="1.1" id="Layer_1" xmlns="http://www.w3.org/2000/svg" xmlns:xlink="http://www.w3.org/1999/xlink" x="0px" y="0px"
	 viewBox="0 0 500 500" style="enable-background:new 0 0 500 500;" xml:space="preserve">
<style type="text/css">
	.st0{fill:#1B384B;}
</style>
<polygon class="st0" points="350.1,301.4 271,301.4 261.2,353 360,353 "/>
<path class="st0" d="M389.4,363H231.7c-13.2,0-23.9,10.7-23.9,23.9l0,0h205.5C413.3,373.7,402.6,363,389.4,363"/>
<path class="st0" d="M185.6,208c-29.9-29-30.7-76.7-1.8-106.7c0.6-0.6,1.2-1.2,1.8-1.8c30.6-29.9,80.3-29.9,111,0
	c29.9,29,30.7,76.7,1.8,106.7c-0.6,0.6-1.2,1.2-1.8,1.8C265.9,238,216.2,238,185.6,208 M320.7,75.9c-44-43-115.3-43-159.3,0
	c-43,41.6-44.1,110.2-2.6,153.2c0.8,0.9,1.7,1.7,2.6,2.6c44,43,115.3,43,159.3,0c43-41.6,44.1-110.2,2.5-153.2
	C322.4,77.6,321.6,76.7,320.7,75.9"/>
<path class="st0" d="M121.1,181.2v47.4c3-0.9,6.2-1.3,9.4-1.3c5.8,0,11.6,1.5,16.6,4.4C134.5,217.2,125.6,199.9,121.1,181.2"/>
<path class="st0" d="M473.5,0H147.6c-14.6,0-26.5,11.8-26.5,26.5c0,0,0,0,0,0v99.7c4.9-20.5,15.1-39.3,29.7-54.5v-42h319.5v227.6
	H304.1c-39,22.6-87.1,22.6-126.1,0h-14.2c0.1,0.9,0.1,1.9,0.1,2.8c0,8.8-3.6,17.2-9.9,23.3l-4,3.9l0,0l-8.8,8.6
	c2.1,0.5,4.2,0.8,6.4,0.8h325.9c14.6,0,26.5-11.9,26.5-26.5c0,0,0,0,0,0V26.5C500,11.9,488.1,0,473.5,0C473.5,0,473.5,0,473.5,0"/>
<path class="st0" d="M6.7,349.5c-8.7,8.4-9,22.4-0.6,31.1c0.2,0.2,0.4,0.4,0.6,0.6c9,8.7,23.4,8.7,32.4,0l95.9-93.7l-32.4-31.7
	L6.7,349.5z M146.7,244.3c-9-8.7-23.4-8.7-32.4,0l-1.2,1.2l32.4,31.6l1.2-1.1c8.7-8.4,9-22.4,0.6-31.1
	C147.1,244.7,146.9,244.5,146.7,244.3"/>
<rect x="368.5" y="94.6" class="st0" width="77.4" height="19.5"/>
<rect x="368.5" y="137.3" class="st0" width="77.4" height="19.5"/>
<rect x="368.5" y="181.3" class="st0" width="77.4" height="19.5"/>
</svg>
