<?xml version="1.0" encoding="UTF-8"?>
<svg width="24px" height="20px" viewBox="0 0 24 20" version="1.1"
    xmlns="http://www.w3.org/2000/svg"
    xmlns:xlink="http://www.w3.org/1999/xlink">
    <!-- Generator: Sketch 59.1 (86144) - https://sketch.com -->
    <title>fill</title>
    <desc>Created with Sketch.</desc>
    <g id="Symbols" stroke="none" stroke-width="1" fill="none" fill-rule="evenodd">
        <g id="icon/flat/arrow/flip-left" transform="translate(0.000000, -2.000000)" fill="#007eb1">
            <path d="M9.33333333,7.33333333 L9.33333333,2 L0,11.3333333 L9.33333333,20.6666667 L9.33333333,15.2 C16,15.2 20.6666667,17.3333333 24,22 C22.6666667,15.3333333 18.6666667,8.66666667 9.33333333,7.33333333 Z" id="fill"></path>
        </g>
    </g>
</svg>