<?xml version="1.0" encoding="utf-8"?>
<!-- Generator: Adobe Illustrator 25.2.0, SVG Export Plug-In . SVG Version: 6.00 Build 0)  -->
<svg version="1.1" id="Layer_1"
	xmlns="http://www.w3.org/2000/svg"
	xmlns:xlink="http://www.w3.org/1999/xlink" x="0px" y="0px" viewBox="0 0 500 500" style="enable-background:new 0 0 500 500;" xml:space="preserve">
	<style type="text/css">
	.st0{fill:#e07b27;}
	</style>
	<path class="st0" d="M119.7,248.6l-3.5,37.9h267.6l-2.7-37.1c-1.1-15-9.1-28.7-21.6-37c-41.8-18.1-60.8-36.6-66.7-43.2
	c-1.2-1.3-2.5-2.6-3.8-3.8c-2-1.7-3.3-4.2-3.6-6.8c-0.5-3.9-0.8-7.8-0.8-11.8v-3c0,0,9.3-16,10.4-24.9c0.2,0.1,0.5,0.1,0.8,0.1
	c1.8,0,6.4-1.6,9.3-17.2c0,0,8.2-20.4,0-21.2c0,0,15.6-35.7-9.3-60.2c-17.5-17.3-33-19.9-40.6-19.9c-1.7,0-3.4,0.1-5.1,0.5
	c-4.2-0.6-8.4-1-12.7-1c-23.6,0-25.2,12.5-25.2,12.5c-30.9,2.6-17.1,68-17.1,68c-8.2,0.7,0,21.2,0,21.2c2.9,15.6,7.5,17.3,9.3,17.3
	c0.3,0,0.5,0,0.8-0.1c1.1,8.9,10.4,24.9,10.4,24.9v3c0,3.9-0.3,7.9-0.8,11.8c-0.3,2.5-1.5,4.8-3.3,6.5c-1.5,1.3-2.9,2.8-4.2,4.2
	c-5.9,6.8-24.7,25.3-66.1,43.3C128.9,220.8,121.1,234,119.7,248.6z"/>
	<path class="st0" d="M499,237.9c-1-13.3-8-25.3-19-32.7c-37.8-16.4-54.5-32-59.2-37.5c-0.9-1-1.9-2-3-2.9c-1.7-1.5-4-4.8-4.3-7.1
	c-0.2-2.3-0.1-4.6,0.2-6.9c11,10.3,30.2,8.9,37.6,7.9c0.4-0.1,0.8-0.5,0.7-0.9c0-0.3-0.2-0.5-0.4-0.6c-4.1-2.3-11.3-9.7-8.5-32.4
	c3.1-24.9-4.3-54.4-7.4-65.3c-1.2-9-5.4-17.4-11.9-23.7c-15.4-15.2-29.1-17.5-35.9-17.5c-1.5,0-3,0.1-4.5,0.4
	c-3.7-0.6-7.4-0.9-11.2-0.9c-20.8,0-22.3,11.1-22.3,11.1c-12.2,1-16.5,13.2-17.5,26.3l0,0c0,0-11.5,38.4-7.6,69.6
	c3,24-5.2,30.9-9.2,32.8c-0.3,0.1-0.4,0.4-0.4,0.6c0.1,0.2,0.3,0.4,0.5,0.4c6.4,0.7,25.6,1.9,37.2-7.8c0.3,2.3,0.4,4.7,0.2,7
	c-0.3,2.2-2.5,5.4-4.1,6.9c-1.3,1.2-2.6,2.4-3.7,3.8c-2.8,3.2-8.9,9.1-19.5,16.2c11.8,7.5,24.2,14,37.1,19.5
	c0.5,0.2,0.9,0.4,1.3,0.7c14.9,9.8,24.4,26.1,25.6,43.9l1.6,22h89.2c10.6,0,19.2-8.5,19.2-19.1c0-0.5,0-1-0.1-1.5L499,237.9z"/>
	<path class="st0" d="M136.1,205.1c0.4-0.3,0.9-0.5,1.4-0.7c13-5.5,25.5-12.2,37.4-19.8c-11.5-7.9-18-14.4-20.8-17.6
	c-1.1-1.2-2.2-2.3-3.4-3.4c-1.7-1.5-2.9-3.6-3.2-5.9c-0.5-3.4-0.7-6.9-0.7-10.4v-2.7c0,0,8.2-14.1,9.2-22c0.2,0.1,0.4,0.1,0.7,0.1
	c1.6,0,5.6-1.4,8.2-15.2c0,0,7.2-18,0-18.7c0,0,13.8-31.5-8.2-53.1c-15.4-15.2-29.1-17.5-35.8-17.5c-1.5,0-3,0.1-4.5,0.4
	c-3.7-0.6-7.4-0.9-11.2-0.9c-20.8,0-22.3,11.1-22.3,11.1c-27.2,2.3-15.1,60-15.1,60c-7.2,0.7,0,18.7,0,18.7
	c2.6,13.8,6.6,15.2,8.2,15.2c0.2,0,0.4,0,0.7-0.1c1,7.9,9.2,22,9.2,22v2.7c0,3.5-0.2,6.9-0.7,10.4c-0.3,2.2-1.3,4.2-2.9,5.7
	c-1.3,1.2-2.6,2.4-3.7,3.7c-5.2,6-21.8,22.4-58.4,38.2c-10.7,7.2-17.6,18.9-18.8,31.8l-1.1,12.6c-1,10.5,6.8,19.8,17.3,20.8
	c0.6,0.1,1.2,0.1,1.7,0.1h89.6l2.1-22.9C112.4,230.5,121.7,214.8,136.1,205.1z"/>
</svg>
